{
  "paragraphs": [
    {
      "text": "%md\n# WordCount with MapReduce\n\n```java\nimport java.io.IOException;\nimport java.util.StringTokenizer;\n\nimport org.apache.hadoop.conf.Configuration;\nimport org.apache.hadoop.fs.Path;\nimport org.apache.hadoop.io.IntWritable;\nimport org.apache.hadoop.io.Text;\nimport org.apache.hadoop.mapreduce.Job;\nimport org.apache.hadoop.mapreduce.Mapper;\nimport org.apache.hadoop.mapreduce.Reducer;\nimport org.apache.hadoop.mapreduce.lib.input.FileInputFormat;\nimport org.apache.hadoop.mapreduce.lib.output.FileOutputFormat;\n\npublic class WordCount {\n\n  public static class TokenizerMapper\n       extends Mapper\u003cObject, Text, Text, IntWritable\u003e{\n\n    private final static IntWritable one \u003d new IntWritable(1);\n    private Text word \u003d new Text();\n\n    public void map(Object key, Text value, Context context\n                    ) throws IOException, InterruptedException {\n      StringTokenizer itr \u003d new StringTokenizer(value.toString());\n      while (itr.hasMoreTokens()) {\n        word.set(itr.nextToken());\n        context.write(word, one);\n      }\n    }\n  }\n\n  public static class IntSumReducer\n       extends Reducer\u003cText,IntWritable,Text,IntWritable\u003e {\n    private IntWritable result \u003d new IntWritable();\n\n    public void reduce(Text key, Iterable\u003cIntWritable\u003e values,\n                       Context context\n                       ) throws IOException, InterruptedException {\n      int sum \u003d 0;\n      for (IntWritable val : values) {\n        sum +\u003d val.get();\n      }\n      result.set(sum);\n      context.write(key, result);\n    }\n  }\n\n  public static void main(String[] args) throws Exception {\n    Configuration conf \u003d new Configuration();\n    Job job \u003d Job.getInstance(conf, \"word count\");\n    job.setJarByClass(WordCount.class);\n    job.setMapperClass(TokenizerMapper.class);\n    job.setCombinerClass(IntSumReducer.class);\n    job.setReducerClass(IntSumReducer.class);\n    job.setOutputKeyClass(Text.class);\n    job.setOutputValueClass(IntWritable.class);\n    FileInputFormat.addInputPath(job, new Path(args[0]));\n    FileOutputFormat.setOutputPath(job, new Path(args[1]));\n    System.exit(job.waitForCompletion(true) ? 0 : 1);\n  }\n}\n```\n",
      "user": "anonymous",
      "dateUpdated": "Dec 11, 2016 1:30:34 AM",
      "config": {
        "colWidth": 6.0,
        "enabled": true,
        "results": {},
        "editorSetting": {
          "language": "markdown",
          "editOnDblClick": true
        },
        "editorMode": "ace/mode/markdown",
        "editorHide": true,
        "tableHide": false
      },
      "settings": {
        "params": {},
        "forms": {}
      },
      "apps": [],
      "jobName": "paragraph_1481375553409_1389535278",
      "id": "20161210-221233_2126534157",
      "results": {
        "code": "ERROR",
        "msg": [
          {
            "type": "TEXT",
            "data": "Error while parsing action \u0027Root/Sequence/ZeroOrMore/Sequence/Block/FirstOf/Heading/FirstOf/AtxHeading/OneOrMore/Sequence/AtxInline/Inline/FirstOf/NonLinkInline/Space/NodeSequence_Action2\u0027 at input position (line 1, pos 18):\n# WordCount with MapReduce\n                 ^\n\njava.lang.ClassCastException: org.pegdown.ast.HeaderNode cannot be cast to java.lang.Integer"
          }
        ]
      },
      "dateCreated": "Dec 10, 2016 10:12:33 PM",
      "dateStarted": "Dec 11, 2016 1:30:34 AM",
      "dateFinished": "Dec 11, 2016 1:30:38 AM",
      "status": "ERROR",
      "progressUpdateIntervalMs": 500
    },
    {
      "text": "%md\n# WordCount with Spark\n```scala\nimport org.apache.spark.sql.SparkSession\n\n//val spark \u003d SparkSession.builder.appName(\"WordCount\").getOrCreate()\nval textFile \u003d sc.textFile(\"README.md\")\nval counts \u003d textFile.flatMap(line \u003d\u003e line.split(\" \")).map(word \u003d\u003e (word, 1)).reduceByKey(_ + _).sortByKey(false)\n\ncounts.sortBy(_._2,false).collect().foreach(println)\n```",
      "user": "anonymous",
      "dateUpdated": "Dec 11, 2016 1:30:34 AM",
      "config": {
        "colWidth": 6.0,
        "enabled": true,
        "results": {},
        "editorSetting": {
          "language": "markdown",
          "editOnDblClick": true
        },
        "editorMode": "ace/mode/markdown",
        "editorHide": true,
        "tableHide": false
      },
      "settings": {
        "params": {},
        "forms": {}
      },
      "apps": [],
      "jobName": "paragraph_1481375575185_-159433146",
      "id": "20161210-221255_454822300",
      "results": {
        "code": "SUCCESS",
        "msg": [
          {
            "type": "HTML",
            "data": "\u003cdiv class\u003d\"markdown-body\"\u003e\n\u003ch1\u003eWordCount with Spark\u003c/h1\u003e\n\u003cpre\u003e\u003ccode class\u003d\"scala\"\u003eimport org.apache.spark.sql.SparkSession\n\n//val spark \u003d SparkSession.builder.appName(\u0026quot;WordCount\u0026quot;).getOrCreate()\nval textFile \u003d sc.textFile(\u0026quot;README.md\u0026quot;)\nval counts \u003d textFile.flatMap(line \u003d\u0026gt; line.split(\u0026quot; \u0026quot;)).map(word \u003d\u0026gt; (word, 1)).reduceByKey(_ + _).sortByKey(false)\n\ncounts.sortBy(_._2,false).collect().foreach(println)\n\u003c/code\u003e\u003c/pre\u003e\n\u003c/div\u003e"
          }
        ]
      },
      "dateCreated": "Dec 10, 2016 10:12:55 PM",
      "dateStarted": "Dec 11, 2016 1:30:37 AM",
      "dateFinished": "Dec 11, 2016 1:30:38 AM",
      "status": "FINISHED",
      "progressUpdateIntervalMs": 500
    },
    {
      "title": "WordCount Demo",
      "text": "%spark\nimport org.apache.spark.sql.SparkSession\n\n//val spark \u003d SparkSession.builder.appName(\"WordCount\").getOrCreate()\nval textFile \u003d sc.textFile(\"README.md\")\nval counts \u003d textFile.flatMap(line \u003d\u003e line.split(\" \")).map(word \u003d\u003e (word, 1)).reduceByKey(_ + _).sortByKey(false)\n\ncounts.sortBy(_._2,false).collect().foreach(println)",
      "user": "anonymous",
      "dateUpdated": "Dec 11, 2016 1:30:34 AM",
      "config": {
        "colWidth": 6.0,
        "enabled": true,
        "results": {},
        "editorSetting": {
          "language": "scala",
          "editOnDblClick": false
        },
        "editorMode": "ace/mode/scala",
        "title": true
      },
      "settings": {
        "params": {},
        "forms": {}
      },
      "apps": [],
      "jobName": "paragraph_1481375946152_-1036719767",
      "id": "20161210-221906_1541641540",
      "results": {
        "code": "SUCCESS",
        "msg": [
          {
            "type": "TEXT",
            "data": "\nimport org.apache.spark.sql.SparkSession\n\ntextFile: org.apache.spark.rdd.RDD[String] \u003d README.md MapPartitionsRDD[1] at textFile at \u003cconsole\u003e:32\n\ncounts: org.apache.spark.rdd.RDD[(String, Int)] \u003d ShuffledRDD[7] at sortByKey at \u003cconsole\u003e:34\n(,18)\n(from,4)\n(to,3)\n(and,3)\n(Zeppelin,3)\n(Apache,3)\n(notebook,2)\n(interactive,2)\n(binary,2)\n([User,2)\n(Please,2)\n(*,2)\n(###,2)\n(with,1)\n(web-based,1)\n(web,1)\n(visit,1)\n(that,1)\n(support,1)\n(style,1)\n(source](http://zeppelin.apache.org/docs/snapshot/install/build.html),1)\n(source.,1)\n(source,1)\n(site,1)\n(package.,1)\n(package,1)\n(our,1)\n(more.,1)\n(more,1)\n(make,1)\n(mailing,1)\n(list](http://zeppelin.apache.org/community.html)\u003cbr/\u003e,1)\n(know,1)\n(install,1)\n(go,1)\n(feature:,1)\n(enables,1)\n(editor.,1)\n(documents,1)\n(data-driven,,1)\n(data,1)\n(collaborative,1)\n(check,1)\n(can,1)\n(build,1)\n(beautiful,1)\n(based,1)\n(analytics.,1)\n(about,1)\n(a,1)\n([install](http://zeppelin.apache.org/docs/snapshot/install/install.html),1)\n([http://zeppelin.apache.org](http://zeppelin.apache.org),1)\n([Jira](https://issues.apache.org/jira/browse/ZEPPELIN)\u003cbr/\u003e,1)\n([Contribution,1)\n([Build,1)\n([Apache,1)\n([![Build,1)\n(Zeppelin,,1)\n(You,1)\n(Web,1)\n(Tracker:**,1)\n(To,1)\n(Status](https://travis-ci.org/apache/zeppelin.svg?branch\u003dmaster)](https://travis-ci.org/apache/zeppelin),1)\n(Started,1)\n(Spark,1)\n(Scala,1)\n(SQL,,1)\n(Lists:**,1)\n(Integration:**,1)\n(Install,1)\n(Guide](https://zeppelin.apache.org/contribution/contributions.html)\u003cbr/\u003e,1)\n(Guide](http://zeppelin.apache.org/docs/latest/index.html)\u003cbr/\u003e,1)\n(Getting,1)\n(Dev,1)\n(Core,1)\n(Built-in,1)\n(Build,1)\n(\u003cbr/\u003e,1)\n(2.0](https://github.com/apache/zeppelin/blob/master/LICENSE),1)\n(**Zeppelin**,,1)\n(**Mailing,1)\n(**License:**,1)\n(**Issue,1)\n(**Documentation:**,1)\n(**Contributing:**,1)\n(**Continuous,1)\n(##,1)\n(#,1)\n"
          }
        ]
      },
      "dateCreated": "Dec 10, 2016 10:19:06 PM",
      "dateStarted": "Dec 11, 2016 1:30:34 AM",
      "dateFinished": "Dec 11, 2016 1:30:42 AM",
      "status": "FINISHED",
      "progressUpdateIntervalMs": 500
    },
    {
      "text": "%md\n# Demo2 レコメンド\nMovieLensのデータを使用して、ユーザの映画に対する評価データから、ALSという方法でレコメンドモデルを作成し、\nレコメンド結果を出力する。",
      "user": "anonymous",
      "dateUpdated": "Dec 11, 2016 2:33:18 AM",
      "config": {
        "colWidth": 12.0,
        "enabled": true,
        "results": {},
        "editorSetting": {
          "language": "markdown",
          "editOnDblClick": true
        },
        "editorMode": "ace/mode/markdown",
        "editorHide": true,
        "tableHide": false
      },
      "settings": {
        "params": {},
        "forms": {}
      },
      "apps": [],
      "jobName": "paragraph_1481391088816_-1757046705",
      "id": "20161211-023128_963931719",
      "results": {
        "code": "SUCCESS",
        "msg": [
          {
            "type": "HTML",
            "data": "\u003cdiv class\u003d\"markdown-body\"\u003e\n\u003ch1\u003eDemo2 レコメンド\u003c/h1\u003e\n\u003cp\u003eMovieLensのデータを使用して、ユーザの映画に対する評価データから、ALSという方法でレコメンドモデルを作成し、\u003cbr/\u003eレコメンド結果を出力する。\u003c/p\u003e\n\u003c/div\u003e"
          }
        ]
      },
      "dateCreated": "Dec 11, 2016 2:31:28 AM",
      "dateStarted": "Dec 11, 2016 2:33:18 AM",
      "dateFinished": "Dec 11, 2016 2:33:21 AM",
      "status": "FINISHED",
      "progressUpdateIntervalMs": 500
    },
    {
      "title": "ユーザの評価情報データの読み込み",
      "text": "%spark\n\nimport org.apache.spark.sql.SparkSession\nimport org.apache.spark.sql.functions._\nimport org.apache.spark.sql.types._\nimport org.apache.spark.sql._\nimport org.apache.spark.sql.expressions.Window\nimport org.apache.spark.sql.functions.{rank, desc}\n\nval appName \u003d \"demo1\"\nval spark \u003d SparkSession.builder.appName(s\"${appName}\").getOrCreate()\nimport spark.implicits._\ncase class Rating(user: Int, item: Int, rating: Double)\nval dirprefix \u003d \"/Users/chie\"\nval learndata \u003d s\"${dirprefix}/work/data/ml-latest-small/ratings_notitle.csv\"\nval outputdir \u003d s\"${dirprefix}/work/output/${appName}\"\nval modeldir \u003d s\"${outputdir}/model\"\nval data \u003d sc.textFile(learndata)\nval ratings \u003d data.map(_.split(\u0027,\u0027) match { case Array(user, item, rating, timestamp) \u003d\u003e\n      Rating(user.toInt, item.toInt, rating.toDouble)\n}).toDF\n\nratings.registerTempTable(\"rating_table\")\nratings.show(20,false)\n\n\n",
      "user": "anonymous",
      "dateUpdated": "Dec 11, 2016 2:35:55 AM",
      "config": {
        "colWidth": 12.0,
        "enabled": true,
        "results": {},
        "editorSetting": {
          "language": "scala",
          "editOnDblClick": false
        },
        "editorMode": "ace/mode/scala",
        "title": true,
        "tableHide": false,
        "editorHide": false
      },
      "settings": {
        "params": {},
        "forms": {}
      },
      "apps": [],
      "jobName": "paragraph_1481368373277_-1228326290",
      "id": "20161210-201253_1062838878",
      "results": {
        "code": "SUCCESS",
        "msg": [
          {
            "type": "TEXT",
            "data": "\nimport org.apache.spark.sql.SparkSession\n\nimport org.apache.spark.sql.functions._\n\nimport org.apache.spark.sql.types._\n\nimport org.apache.spark.sql._\n\nimport org.apache.spark.sql.expressions.Window\n\nimport org.apache.spark.sql.functions.{rank, desc}\n\nappName: String \u003d demo1\n\nspark: org.apache.spark.sql.SparkSession \u003d org.apache.spark.sql.SparkSession@6b0090ae\n\nimport spark.implicits._\n\ndefined class Rating\n\ndirprefix: String \u003d /Users/chie\n\nlearndata: String \u003d /Users/chie/work/data/ml-latest-small/ratings_notitle.csv\n\noutputdir: String \u003d /Users/chie/work/output/demo1\n\nmodeldir: String \u003d /Users/chie/work/output/demo1/model\n\ndata: org.apache.spark.rdd.RDD[String] \u003d /Users/chie/work/data/ml-latest-small/ratings_notitle.csv MapPartitionsRDD[1] at textFile at \u003cconsole\u003e:50\n\nratings: org.apache.spark.sql.DataFrame \u003d [user: int, item: int ... 1 more field]\n\nwarning: there was one deprecation warning; re-run with -deprecation for details\n+----+----+------+\n|user|item|rating|\n+----+----+------+\n|1   |31  |2.5   |\n|1   |1029|3.0   |\n|1   |1061|3.0   |\n|1   |1129|2.0   |\n|1   |1172|4.0   |\n|1   |1263|2.0   |\n|1   |1287|2.0   |\n|1   |1293|2.0   |\n|1   |1339|3.5   |\n|1   |1343|2.0   |\n|1   |1371|2.5   |\n|1   |1405|1.0   |\n|1   |1953|4.0   |\n|1   |2105|4.0   |\n|1   |2150|3.0   |\n|1   |2193|2.0   |\n|1   |2294|2.0   |\n|1   |2455|2.5   |\n|1   |2968|1.0   |\n|1   |3671|3.0   |\n+----+----+------+\nonly showing top 20 rows\n\n"
          }
        ]
      },
      "dateCreated": "Dec 10, 2016 8:12:53 PM",
      "dateStarted": "Dec 11, 2016 2:35:55 AM",
      "dateFinished": "Dec 11, 2016 2:36:38 AM",
      "status": "FINISHED",
      "progressUpdateIntervalMs": 500
    },
    {
      "text": "%spark\nval summary \u003d ratings.groupBy(\"user\").agg($\"user\", sum(\"user\"),max(\"rating\"))\nsummary.show(20,false)\n//val w \u003d Window.partitionBy($\"user\").orderBy(desc(\"prediction\"))\n//val topnresult \u003d predictions.withColumn(\"rank\", rank.over(w)).where($\"rank\" \u003c\u003d 5)",
      "user": "anonymous",
      "dateUpdated": "Dec 11, 2016 1:30:34 AM",
      "config": {
        "colWidth": 12.0,
        "enabled": true,
        "results": {},
        "editorSetting": {
          "language": "scala",
          "editOnDblClick": false
        },
        "editorMode": "ace/mode/scala",
        "editorHide": false
      },
      "settings": {
        "params": {},
        "forms": {}
      },
      "apps": [],
      "jobName": "paragraph_1481385196613_-516462936",
      "id": "20161211-005316_1602065345",
      "results": {
        "code": "SUCCESS",
        "msg": [
          {
            "type": "TEXT",
            "data": "\nsummary: org.apache.spark.sql.DataFrame \u003d [user: int, user: int ... 2 more fields]\n+----+----+---------+-----------+\n|user|user|sum(user)|max(rating)|\n+----+----+---------+-----------+\n|148 |148 |19536    |5.0        |\n|463 |463 |223629   |5.0        |\n|471 |471 |101736   |5.0        |\n|496 |496 |62496    |5.0        |\n|243 |243 |74601    |5.0        |\n|392 |392 |9800     |4.5        |\n|540 |540 |10800    |5.0        |\n|623 |623 |64169    |5.0        |\n|31  |31  |2139     |5.0        |\n|516 |516 |76884    |5.0        |\n|85  |85  |9095     |5.0        |\n|137 |137 |10960    |5.0        |\n|251 |251 |29869    |5.0        |\n|451 |451 |23452    |5.0        |\n|580 |580 |534760   |5.0        |\n|65  |65  |1755     |5.0        |\n|458 |458 |34808    |5.0        |\n|53  |53  |2438     |5.0        |\n|255 |255 |36975    |5.0        |\n|481 |481 |209716   |5.0        |\n+----+----+---------+-----------+\nonly showing top 20 rows\n\n"
          }
        ]
      },
      "dateCreated": "Dec 11, 2016 12:53:16 AM",
      "dateStarted": "Dec 11, 2016 1:30:43 AM",
      "dateFinished": "Dec 11, 2016 1:31:06 AM",
      "status": "FINISHED",
      "progressUpdateIntervalMs": 500
    },
    {
      "text": "%spark\n\nval als \u003d new ALS().setMaxIter(10).setRegParam(0.01).setAlpha(0.01).setSeed(0L).setRank(40).setNonnegative(true).setImplicitPrefs(true).setUserCol(\"user\").setItemCol(\"item\").setRatingCol(\"rating\")\n    val model \u003d als.fit(ratings)\n    model.overwrite().save(modeldir)",
      "user": "anonymous",
      "dateUpdated": "Dec 11, 2016 2:17:26 AM",
      "config": {
        "colWidth": 12.0,
        "enabled": true,
        "results": {},
        "editorSetting": {
          "language": "scala",
          "editOnDblClick": false
        },
        "editorMode": "ace/mode/scala"
      },
      "settings": {
        "params": {},
        "forms": {}
      },
      "apps": [],
      "jobName": "paragraph_1481386151048_654908642",
      "id": "20161211-010911_1808835460",
      "results": {
        "code": "ERROR",
        "msg": [
          {
            "type": "TEXT",
            "data": "\nmodeldir: String \u003d /Users/chie/work/output/demo1/model\n\nals: org.apache.spark.ml.recommendation.ALS \u003d als_9de75381af06\n\nmodel: org.apache.spark.ml.recommendation.ALSModel \u003d als_9de75381af06\n\n\n\n\u003cconsole\u003e:70: error: value overwrite is not a member of org.apache.spark.ml.recommendation.ALSModel\n           model.overwrite().save(modeldir)\n                 ^\n"
          }
        ]
      },
      "dateCreated": "Dec 11, 2016 1:09:11 AM",
      "dateStarted": "Dec 11, 2016 1:31:04 AM",
      "dateFinished": "Dec 11, 2016 1:31:26 AM",
      "status": "ERROR",
      "progressUpdateIntervalMs": 500
    },
    {
      "text": "%spark\n\nimport org.apache.spark.ml.recommendation.ALS\nimport org.apache.spark.ml.recommendation.ALSModel\n\nval model \u003d ALSModel.load(modeldir)\n\nval user \u003d ratings.select(\u0027user as \"user2\").distinct.filter(\"user2 \u003c 5\")\nval item \u003d ratings.select(\u0027item as \"item2\").distinct\n\nval useritem \u003d user.join(item).persist\nval useritem_outer \u003d useritem.join(ratings,useritem(\"user2\") \u003d\u003d\u003d ratings(\"user\") \u0026\u0026 useritem(\"item2\") \u003d\u003d\u003d ratings(\"item\"),\"left\").\nfilter(ratings(\"rating\").isNull)\nval useritem_outer2 \u003d useritem_outer.select(useritem(\"user2\") as \"user\", useritem(\"item2\") as \"item\")\nval predictions \u003d model.transform(useritem_outer2).persist()\n\nval w \u003d Window.partitionBy($\"user\").orderBy(desc(\"prediction\"))\nval topnresult \u003d predictions.withColumn(\"rank\", rank.over(w)).where($\"rank\" \u003c\u003d 5)\ntopnresult.show(25,false)\n//topnresult.write.mode(SaveMode.Overwrite).save(s\"$outputdir/result\")",
      "user": "anonymous",
      "dateUpdated": "Dec 11, 2016 2:37:38 AM",
      "config": {
        "colWidth": 12.0,
        "enabled": true,
        "results": {},
        "editorSetting": {
          "language": "scala",
          "editOnDblClick": false
        },
        "editorMode": "ace/mode/scala"
      },
      "settings": {
        "params": {},
        "forms": {}
      },
      "apps": [],
      "jobName": "paragraph_1481386317400_-42824481",
      "id": "20161211-011157_1151818264",
      "results": {
        "code": "ERROR",
        "msg": [
          {
            "type": "TEXT",
            "data": "\nimport org.apache.spark.ml.recommendation.ALS\n\nimport org.apache.spark.ml.recommendation.ALSModel\n\nmodel: org.apache.spark.ml.recommendation.ALSModel \u003d als_5dfba23fc8f4\n\nuser: org.apache.spark.sql.Dataset[org.apache.spark.sql.Row] \u003d [user2: int]\n\nitem: org.apache.spark.sql.Dataset[org.apache.spark.sql.Row] \u003d [item2: int]\n\nuseritem: org.apache.spark.sql.Dataset[org.apache.spark.sql.Row] \u003d [user2: int, item2: int]\n\nuseritem_outer: org.apache.spark.sql.Dataset[org.apache.spark.sql.Row] \u003d [user2: int, item2: int ... 3 more fields]\n\nuseritem_outer2: org.apache.spark.sql.DataFrame \u003d [user: int, item: int]\n\npredictions: org.apache.spark.sql.Dataset[org.apache.spark.sql.Row] \u003d [user: int, item: int ... 1 more field]\n\nw: org.apache.spark.sql.expressions.WindowSpec \u003d org.apache.spark.sql.expressions.WindowSpec@3a640ced\n\ntopnresult: org.apache.spark.sql.Dataset[org.apache.spark.sql.Row] \u003d [user: int, item: int ... 2 more fields]\n\n\n\n\n\n\n\n\n\n\n\n\n\n\n\n\n\n\n\n\n\n\n\n\n\n\n\n\n\n\n\n\n\n\n\n\n\n\n\n\n\n\n\n\n\n\n\n\n\n\n\n\n\n\n\n\n\n\n\n\n\n\n\n\n\n\n\n\n\n\n\n\n\n\n\n\n\n\n\n\n\n\n\n\n\n\n\n\n\n\n\n\n\n\n\n\n\n\n\n\n\n\norg.apache.spark.SparkException: Job aborted due to stage failure: Task 18020 in stage 13.0 failed 1 times, most recent failure: Lost task 18020.0 in stage 13.0 (TID 18049, localhost): java.lang.OutOfMemoryError: Unable to acquire 20 bytes of memory, got 0\n\tat org.apache.spark.memory.MemoryConsumer.allocatePage(MemoryConsumer.java:129)\n\tat org.apache.spark.util.collection.unsafe.sort.UnsafeExternalSorter.acquireNewPageIfNecessary(UnsafeExternalSorter.java:377)\n\tat org.apache.spark.util.collection.unsafe.sort.UnsafeExternalSorter.insertRecord(UnsafeExternalSorter.java:399)\n\tat org.apache.spark.sql.execution.joins.UnsafeCartesianRDD$$anonfun$compute$2.apply(CartesianProductExec.scala:57)\n\tat org.apache.spark.sql.execution.joins.UnsafeCartesianRDD$$anonfun$compute$2.apply(CartesianProductExec.scala:56)\n\tat scala.collection.Iterator$class.foreach(Iterator.scala:893)\n\tat org.apache.spark.sql.execution.WholeStageCodegenExec$$anonfun$8$$anon$1.foreach(WholeStageCodegenExec.scala:368)\n\tat org.apache.spark.sql.execution.joins.UnsafeCartesianRDD.compute(CartesianProductExec.scala:56)\n\tat org.apache.spark.rdd.RDD.computeOrReadCheckpoint(RDD.scala:319)\n\tat org.apache.spark.rdd.RDD.iterator(RDD.scala:283)\n\tat org.apache.spark.rdd.MapPartitionsRDD.compute(MapPartitionsRDD.scala:38)\n\tat org.apache.spark.rdd.RDD.computeOrReadCheckpoint(RDD.scala:319)\n\tat org.apache.spark.rdd.RDD.iterator(RDD.scala:283)\n\tat org.apache.spark.rdd.MapPartitionsRDD.compute(MapPartitionsRDD.scala:38)\n\tat org.apache.spark.rdd.RDD.computeOrReadCheckpoint(RDD.scala:319)\n\tat org.apache.spark.rdd.RDD$$anonfun$8.apply(RDD.scala:332)\n\tat org.apache.spark.rdd.RDD$$anonfun$8.apply(RDD.scala:330)\n\tat org.apache.spark.storage.BlockManager$$anonfun$doPutIterator$1.apply(BlockManager.scala:935)\n\tat org.apache.spark.storage.BlockManager$$anonfun$doPutIterator$1.apply(BlockManager.scala:926)\n\tat org.apache.spark.storage.BlockManager.doPut(BlockManager.scala:866)\n\tat org.apache.spark.storage.BlockManager.doPutIterator(BlockManager.scala:926)\n\tat org.apache.spark.storage.BlockManager.getOrElseUpdate(BlockManager.scala:670)\n\tat org.apache.spark.rdd.RDD.getOrCompute(RDD.scala:330)\n\tat org.apache.spark.rdd.RDD.iterator(RDD.scala:281)\n\tat org.apache.spark.rdd.MapPartitionsRDD.compute(MapPartitionsRDD.scala:38)\n\tat org.apache.spark.rdd.RDD.computeOrReadCheckpoint(RDD.scala:319)\n\tat org.apache.spark.rdd.RDD.iterator(RDD.scala:283)\n\tat org.apache.spark.rdd.MapPartitionsRDD.compute(MapPartitionsRDD.scala:38)\n\tat org.apache.spark.rdd.RDD.computeOrReadCheckpoint(RDD.scala:319)\n\tat org.apache.spark.rdd.RDD.iterator(RDD.scala:283)\n\tat org.apache.spark.scheduler.ShuffleMapTask.runTask(ShuffleMapTask.scala:79)\n\tat org.apache.spark.scheduler.ShuffleMapTask.runTask(ShuffleMapTask.scala:47)\n\tat org.apache.spark.scheduler.Task.run(Task.scala:86)\n\tat org.apache.spark.executor.Executor$TaskRunner.run(Executor.scala:274)\n\tat java.util.concurrent.ThreadPoolExecutor.runWorker(ThreadPoolExecutor.java:1142)\n\tat java.util.concurrent.ThreadPoolExecutor$Worker.run(ThreadPoolExecutor.java:617)\n\tat java.lang.Thread.run(Thread.java:745)\n\nDriver stacktrace:\n  at org.apache.spark.scheduler.DAGScheduler.org$apache$spark$scheduler$DAGScheduler$$failJobAndIndependentStages(DAGScheduler.scala:1454)\n  at org.apache.spark.scheduler.DAGScheduler$$anonfun$abortStage$1.apply(DAGScheduler.scala:1442)\n  at org.apache.spark.scheduler.DAGScheduler$$anonfun$abortStage$1.apply(DAGScheduler.scala:1441)\n  at scala.collection.mutable.ResizableArray$class.foreach(ResizableArray.scala:59)\n  at scala.collection.mutable.ArrayBuffer.foreach(ArrayBuffer.scala:48)\n  at org.apache.spark.scheduler.DAGScheduler.abortStage(DAGScheduler.scala:1441)\n  at org.apache.spark.scheduler.DAGScheduler$$anonfun$handleTaskSetFailed$1.apply(DAGScheduler.scala:811)\n  at org.apache.spark.scheduler.DAGScheduler$$anonfun$handleTaskSetFailed$1.apply(DAGScheduler.scala:811)\n  at scala.Option.foreach(Option.scala:257)\n  at org.apache.spark.scheduler.DAGScheduler.handleTaskSetFailed(DAGScheduler.scala:811)\n  at org.apache.spark.scheduler.DAGSchedulerEventProcessLoop.doOnReceive(DAGScheduler.scala:1667)\n  at org.apache.spark.scheduler.DAGSchedulerEventProcessLoop.onReceive(DAGScheduler.scala:1622)\n  at org.apache.spark.scheduler.DAGSchedulerEventProcessLoop.onReceive(DAGScheduler.scala:1611)\n  at org.apache.spark.util.EventLoop$$anon$1.run(EventLoop.scala:48)\n  at org.apache.spark.scheduler.DAGScheduler.runJob(DAGScheduler.scala:632)\n  at org.apache.spark.SparkContext.runJob(SparkContext.scala:1873)\n  at org.apache.spark.SparkContext.runJob(SparkContext.scala:1886)\n  at org.apache.spark.SparkContext.runJob(SparkContext.scala:1899)\n  at org.apache.spark.sql.execution.SparkPlan.executeTake(SparkPlan.scala:347)\n  at org.apache.spark.sql.execution.CollectLimitExec.executeCollect(limit.scala:39)\n  at org.apache.spark.sql.Dataset$$anonfun$org$apache$spark$sql$Dataset$$execute$1$1.apply(Dataset.scala:2193)\n  at org.apache.spark.sql.execution.SQLExecution$.withNewExecutionId(SQLExecution.scala:57)\n  at org.apache.spark.sql.Dataset.withNewExecutionId(Dataset.scala:2546)\n  at org.apache.spark.sql.Dataset.org$apache$spark$sql$Dataset$$execute$1(Dataset.scala:2192)\n  at org.apache.spark.sql.Dataset.org$apache$spark$sql$Dataset$$collect(Dataset.scala:2199)\n  at org.apache.spark.sql.Dataset$$anonfun$head$1.apply(Dataset.scala:1935)\n  at org.apache.spark.sql.Dataset$$anonfun$head$1.apply(Dataset.scala:1934)\n  at org.apache.spark.sql.Dataset.withTypedCallback(Dataset.scala:2576)\n  at org.apache.spark.sql.Dataset.head(Dataset.scala:1934)\n  at org.apache.spark.sql.Dataset.take(Dataset.scala:2149)\n  at org.apache.spark.sql.Dataset.showString(Dataset.scala:239)\n  at org.apache.spark.sql.Dataset.show(Dataset.scala:526)\n  ... 54 elided\nCaused by: java.lang.OutOfMemoryError: Unable to acquire 20 bytes of memory, got 0\n  at org.apache.spark.memory.MemoryConsumer.allocatePage(MemoryConsumer.java:129)\n  at org.apache.spark.util.collection.unsafe.sort.UnsafeExternalSorter.acquireNewPageIfNecessary(UnsafeExternalSorter.java:377)\n  at org.apache.spark.util.collection.unsafe.sort.UnsafeExternalSorter.insertRecord(UnsafeExternalSorter.java:399)\n  at org.apache.spark.sql.execution.joins.UnsafeCartesianRDD$$anonfun$compute$2.apply(CartesianProductExec.scala:57)\n  at org.apache.spark.sql.execution.joins.UnsafeCartesianRDD$$anonfun$compute$2.apply(CartesianProductExec.scala:56)\n  at scala.collection.Iterator$class.foreach(Iterator.scala:893)\n  at org.apache.spark.sql.execution.WholeStageCodegenExec$$anonfun$8$$anon$1.foreach(WholeStageCodegenExec.scala:368)\n  at org.apache.spark.sql.execution.joins.UnsafeCartesianRDD.compute(CartesianProductExec.scala:56)\n  at org.apache.spark.rdd.RDD.computeOrReadCheckpoint(RDD.scala:319)\n  at org.apache.spark.rdd.RDD.iterator(RDD.scala:283)\n  at org.apache.spark.rdd.MapPartitionsRDD.compute(MapPartitionsRDD.scala:38)\n  at org.apache.spark.rdd.RDD.computeOrReadCheckpoint(RDD.scala:319)\n  at org.apache.spark.rdd.RDD.iterator(RDD.scala:283)\n  at org.apache.spark.rdd.MapPartitionsRDD.compute(MapPartitionsRDD.scala:38)\n  at org.apache.spark.rdd.RDD.computeOrReadCheckpoint(RDD.scala:319)\n  at org.apache.spark.rdd.RDD$$anonfun$8.apply(RDD.scala:332)\n  at org.apache.spark.rdd.RDD$$anonfun$8.apply(RDD.scala:330)\n  at org.apache.spark.storage.BlockManager$$anonfun$doPutIterator$1.apply(BlockManager.scala:935)\n  at org.apache.spark.storage.BlockManager$$anonfun$doPutIterator$1.apply(BlockManager.scala:926)\n  at org.apache.spark.storage.BlockManager.doPut(BlockManager.scala:866)\n  at org.apache.spark.storage.BlockManager.doPutIterator(BlockManager.scala:926)\n  at org.apache.spark.storage.BlockManager.getOrElseUpdate(BlockManager.scala:670)\n  at org.apache.spark.rdd.RDD.getOrCompute(RDD.scala:330)\n  at org.apache.spark.rdd.RDD.iterator(RDD.scala:281)\n  at org.apache.spark.rdd.MapPartitionsRDD.compute(MapPartitionsRDD.scala:38)\n  at org.apache.spark.rdd.RDD.computeOrReadCheckpoint(RDD.scala:319)\n  at org.apache.spark.rdd.RDD.iterator(RDD.scala:283)\n  at org.apache.spark.rdd.MapPartitionsRDD.compute(MapPartitionsRDD.scala:38)\n  at org.apache.spark.rdd.RDD.computeOrReadCheckpoint(RDD.scal\n\n\n\n\n\n\na:319)\n  at org.apache.spark.rdd.RDD.iterator(RDD.scala:283)\n  at org.apache.spark.scheduler.ShuffleMapTask.runTask(ShuffleMapTask.scala:79)\n  at org.apache.spark.scheduler.ShuffleMapTask.runTask(ShuffleMapTask.scala:47)\n  at org.apache.spark.scheduler.Task.run(Task.scala:86)\n  at org.apache.spark.executor.Executor$TaskRunner.run(Executor.scala:274)\n  ... 3 more\n"
          }
        ]
      },
      "dateCreated": "Dec 11, 2016 1:11:57 AM",
      "dateStarted": "Dec 11, 2016 2:37:38 AM",
      "dateFinished": "Dec 11, 2016 2:52:27 AM",
      "status": "ERROR",
      "progressUpdateIntervalMs": 500
    },
    {
      "text": "%sql\n\nselect user, count(1) as ratingnum from ratings_table group by user order by user",
      "user": "anonymous",
      "dateUpdated": "Dec 11, 2016 1:30:35 AM",
      "config": {
        "colWidth": 12.0,
        "enabled": true,
        "results": {
          "0": {
            "graph": {
              "mode": "multiBarChart",
              "height": 300.0,
              "optionOpen": true,
              "setting": {
                "stackedAreaChart": {},
                "multiBarChart": {}
              },
              "commonSetting": {},
              "keys": [
                {
                  "name": "user",
                  "index": 0.0,
                  "aggr": "sum"
                }
              ],
              "groups": [],
              "values": [
                {
                  "name": "ratingnum",
                  "index": 1.0,
                  "aggr": "sum"
                }
              ]
            },
            "helium": {}
          }
        },
        "editorSetting": {
          "language": "sql",
          "editOnDblClick": false
        },
        "editorMode": "ace/mode/sql"
      },
      "settings": {
        "params": {},
        "forms": {}
      },
      "apps": [],
      "jobName": "paragraph_1481370788064_-1339307473",
      "id": "20161210-205308_370259118",
      "results": {
        "code": "ERROR",
        "msg": [
          {
            "type": "TEXT",
            "data": "Table or view not found: ratings_table; line 1 pos 40\nset zeppelin.spark.sql.stacktrace \u003d true to see full stacktrace"
          }
        ]
      },
      "dateCreated": "Dec 10, 2016 8:53:08 PM",
      "dateStarted": "Dec 11, 2016 1:31:27 AM",
      "dateFinished": "Dec 11, 2016 2:01:57 AM",
      "status": "ERROR",
      "progressUpdateIntervalMs": 500
    },
    {
      "text": "%sql\nselect user, count() from ratings order by count()\n",
      "user": "anonymous",
      "dateUpdated": "Dec 11, 2016 1:30:35 AM",
      "config": {
        "colWidth": 12.0,
        "enabled": true,
        "results": {},
        "editorSetting": {
          "language": "sql",
          "editOnDblClick": false
        },
        "editorMode": "ace/mode/sql"
      },
      "settings": {
        "params": {},
        "forms": {}
      },
      "apps": [],
      "jobName": "paragraph_1481369554157_2001709125",
      "id": "20161210-203234_1848398340",
      "results": {
        "code": "ERROR",
        "msg": [
          {
            "type": "TEXT",
            "data": "Table or view not found: ratings; line 1 pos 26\nset zeppelin.spark.sql.stacktrace \u003d true to see full stacktrace"
          }
        ]
      },
      "dateCreated": "Dec 10, 2016 8:32:34 PM",
      "dateStarted": "Dec 11, 2016 2:01:58 AM",
      "dateFinished": "Dec 11, 2016 2:01:58 AM",
      "status": "ERROR",
      "progressUpdateIntervalMs": 500
    },
    {
      "text": "%sql\n",
      "user": "anonymous",
      "dateUpdated": "Dec 11, 2016 1:30:35 AM",
      "config": {
        "colWidth": 12.0,
        "enabled": true,
        "results": {},
        "editorSetting": {
          "language": "sql",
          "editOnDblClick": false
        },
        "editorMode": "ace/mode/sql"
      },
      "settings": {
        "params": {},
        "forms": {}
      },
      "apps": [],
      "jobName": "paragraph_1481373226324_-1001419149",
      "id": "20161210-213346_1339505269",
      "results": {
        "code": "ERROR",
        "msg": [
          {
            "type": "TEXT",
            "data": "\nno viable alternative at input \u0027\u003cEOF\u003e\u0027(line 1, pos 0)\n\n\u003d\u003d SQL \u003d\u003d\n\n^^^\n\nset zeppelin.spark.sql.stacktrace \u003d true to see full stacktrace"
          }
        ]
      },
      "dateCreated": "Dec 10, 2016 9:33:46 PM",
      "dateStarted": "Dec 11, 2016 2:01:58 AM",
      "dateFinished": "Dec 11, 2016 2:01:58 AM",
      "status": "ERROR",
      "progressUpdateIntervalMs": 500
    }
  ],
  "name": "movielens",
  "id": "2C4T7FM35",
  "angularObjects": {
    "2C55THT6Y:shared_process": [],
    "2C5CAA1VC:shared_process": [],
    "2C5KRN5P7:shared_process": [],
    "2C65JMCE4:shared_process": [],
    "2C64N4HS2:shared_process": [],
    "2C4E1WBSU:shared_process": [],
    "2C623534S:shared_process": [],
    "2C3QD3P3X:shared_process": [],
    "2C586A5RA:shared_process": [],
    "2C4F2JZXE:shared_process": [],
    "2C62GPCVN:shared_process": [],
    "2C2PH4WAY:shared_process": [],
    "2C4625HT1:shared_process": [],
    "2C5VVYMMV:shared_process": [],
    "2C4GUK5V1:shared_process": [],
    "2C3F275R6:shared_process": [],
    "2C4AU8NSC:shared_process": [],
    "2C3BV3WVU:shared_process": [],
    "2C2QB6JBY:shared_process": []
  },
  "config": {
    "looknfeel": "default"
  },
  "info": {}
}